…
Filter Data

Load the dplyr package.

install.packages("dplyr")  #Install the package if you haven't before.
library(dplyr)  #Load the package

 Load the starwars dataframe.

starwarsdata <- starwars

print(starwarsdata)

# A tibble: 87 x 13
                 name height  mass    hair_color  skin_color eye_color
                <chr>  <int> <dbl>         <chr>       <chr>     <chr>
 1     Luke Skywalker    172    77         blond        fair      blue
 2              C-3PO    167    75          <NA>        gold    yellow
 3              R2-D2     96    32          <NA> white, blue       red
 4        Darth Vader    202   136          none       white    yellow
 5        Leia Organa    150    49         brown       light     brown
 6          Owen Lars    178   120   brown, grey       light      blue
 7 Beru Whitesun lars    165    75         brown       light      blue
 8              R5-D4     97    32          <NA>  white, red       red
 9  Biggs Darklighter    183    84         black       light     brown
10     Obi-Wan Kenobi    182    77 auburn, white        fair blue-gray
# ... with 77 more rows, and 7 more variables: birth_year <dbl>,
#   gender <chr>, homeworld <chr>, species <chr>, films <list>,
#   vehicles <list>, starships <list>

 Wait: Before we start filtering, you should understand how the Magrittr package allows us to use pipes to tie together multiple dplyr functions into a single executable command.

Below, we can both define the dataframe, and print the table as we did above with one single script of dplyr commands that are piped together with Magrittr “%>%” piping.

starwarsdata<- starwars%>%   #Step 1: Define the Dataframe
  print()  #Step 2: Print the table

# A tibble: 87 x 13
                 name height  mass    hair_color  skin_color eye_color
                <chr>  <int> <dbl>         <chr>       <chr>     <chr>
 1     Luke Skywalker    172    77         blond        fair      blue
 2              C-3PO    167    75          <NA>        gold    yellow
 3              R2-D2     96    32          <NA> white, blue       red
 4        Darth Vader    202   136          none       white    yellow
 5        Leia Organa    150    49         brown       light     brown
 6          Owen Lars    178   120   brown, grey       light      blue
 7 Beru Whitesun lars    165    75         brown       light      blue
 8              R5-D4     97    32          <NA>  white, red       red
 9  Biggs Darklighter    183    84         black       light     brown
10     Obi-Wan Kenobi    182    77 auburn, white        fair blue-gray
# ... with 77 more rows, and 7 more variables: birth_year <dbl>,
#   gender <chr>, homeworld <chr>, species <chr>, films <list>,
#   vehicles <list>, starships <list>

 Filter Columns

We will only keep the columns for name, eye color, species, and homeworld. 

starwarsdata %>% subset(select = c("name", "eye_color", "species", "homeworld"))

# A tibble: 87 x 4
                 name eye_color species homeworld
                <chr>     <chr>   <chr>     <chr>
 1     Luke Skywalker      blue   Human  Tatooine
 2              C-3PO    yellow   Droid  Tatooine
 3              R2-D2       red   Droid     Naboo
 4        Darth Vader    yellow   Human  Tatooine
 5        Leia Organa     brown   Human  Alderaan
 6          Owen Lars      blue   Human  Tatooine
 7 Beru Whitesun lars      blue   Human  Tatooine
 8              R5-D4       red   Droid  Tatooine
 9  Biggs Darklighter     brown   Human  Tatooine
10     Obi-Wan Kenobi blue-gray   Human   Stewjon
# ... with 77 more rows

 Notice: If we call starwarsdata, the changes are not retained. We get all of the columns again.

print(starwarsdata)

# A tibble: 87 x 13
                 name height  mass    hair_color  skin_color eye_color
                <chr>  <int> <dbl>         <chr>       <chr>     <chr>
 1     Luke Skywalker    172    77         blond        fair      blue
 2              C-3PO    167    75          <NA>        gold    yellow
 3              R2-D2     96    32          <NA> white, blue       red
 4        Darth Vader    202   136          none       white    yellow
 5        Leia Organa    150    49         brown       light     brown
 6          Owen Lars    178   120   brown, grey       light      blue
 7 Beru Whitesun lars    165    75         brown       light      blue
 8              R5-D4     97    32          <NA>  white, red       red
 9  Biggs Darklighter    183    84         black       light     brown
10     Obi-Wan Kenobi    182    77 auburn, white        fair blue-gray
# ... with 77 more rows, and 7 more variables: birth_year <dbl>,
#   gender <chr>, homeworld <chr>, species <chr>, films <list>,
#   vehicles <list>, starships <list>

 If we want to keep the changes, we need to define a new object. We will define “starwars_subset”

starwars_subset <- starwarsdata %>% subset(select = c("name", "eye_color", "species", 
    "homeworld"))

print(starwars_subset)

# A tibble: 87 x 4
                 name eye_color species homeworld
                <chr>     <chr>   <chr>     <chr>
 1     Luke Skywalker      blue   Human  Tatooine
 2              C-3PO    yellow   Droid  Tatooine
 3              R2-D2       red   Droid     Naboo
 4        Darth Vader    yellow   Human  Tatooine
 5        Leia Organa     brown   Human  Alderaan
 6          Owen Lars      blue   Human  Tatooine
 7 Beru Whitesun lars      blue   Human  Tatooine
 8              R5-D4       red   Droid  Tatooine
 9  Biggs Darklighter     brown   Human  Tatooine
10     Obi-Wan Kenobi blue-gray   Human   Stewjon
# ... with 77 more rows

 Filter Rows 
 
 Let’s filter the star wars dataset to show rows representing Humans Only.

starwars_subset %>% filter(species == "Human")

# A tibble: 35 x 4
                 name eye_color species homeworld
                <chr>     <chr>   <chr>     <chr>
 1     Luke Skywalker      blue   Human  Tatooine
 2        Darth Vader    yellow   Human  Tatooine
 3        Leia Organa     brown   Human  Alderaan
 4          Owen Lars      blue   Human  Tatooine
 5 Beru Whitesun lars      blue   Human  Tatooine
 6  Biggs Darklighter     brown   Human  Tatooine
 7     Obi-Wan Kenobi blue-gray   Human   Stewjon
 8   Anakin Skywalker      blue   Human  Tatooine
 9     Wilhuff Tarkin      blue   Human    Eriadu
10           Han Solo     brown   Human  Corellia
# ... with 25 more rows
…
